{
    "key": "group_5c7d10051520e",
    "title": "Posts",
    "fields": [
        {
            "key": "field_5c7d101a2fd7a",
            "label": "Title box 1",
            "name": "title_box_1",
            "aria-label": "",
            "type": "text",
            "instructions": "Defaults to \"Partner Insights\" if not set.",
            "required": 0,
            "conditional_logic": 0,
            "wrapper": {
                "width": "",
                "class": "",
                "id": ""
            },
            "default_value": "",
            "placeholder": "",
            "prepend": "",
            "append": "",
            "maxlength": ""
        },
        {
            "key": "field_5c7d10442fd7b",
            "label": "URL box 1",
            "name": "url_box_1",
            "aria-label": "",
            "type": "url",
            "instructions": "",
            "required": 0,
            "conditional_logic": 0,
            "wrapper": {
                "width": "",
                "class": "",
                "id": ""
            },
            "default_value": "",
            "placeholder": ""
        },
        {
            "key": "field_5c7d10552fd7c",
            "label": "Title box 2",
            "name": "title_box_2",
            "aria-label": "",
            "type": "text",
            "instructions": "Defaults to \"More News\" if not set.",
            "required": 0,
            "conditional_logic": 0,
            "wrapper": {
                "width": "",
                "class": "",
                "id": ""
            },
            "default_value": "",
            "placeholder": "",
            "prepend": "",
            "append": "",
            "maxlength": ""
        },
        {
            "key": "field_5c7d10772fd7d",
            "label": "URL box 2",
            "name": "url_box_2",
            "aria-label": "",
            "type": "url",
            "instructions": "",
            "required": 0,
            "conditional_logic": 0,
            "wrapper": {
                "width": "",
                "class": "",
                "id": ""
            },
            "default_value": "",
            "placeholder": ""
        }
    ],
    "location": [
        [
            {
                "param": "post_type",
                "operator": "==",
                "value": "post"
            },
            {
                "param": "post_category",
                "operator": "!=",
                "value": "category:external-news"
            }
        ]
    ],
    "menu_order": 0,
    "position": "normal",
    "style": "default",
    "label_placement": "top",
    "instruction_placement": "label",
    "hide_on_screen": "",
    "active": true,
    "description": "",
    "show_in_rest": false,
    "modified": 1701082497
}
